Post-adaptation data model fitting experiments
…
Post-adaptation data model fitting experiments

Sebastian Schuster

3/12/2019

## # A tibble: 80 x 2
##    workerid catch_perf
##       <dbl>      <int>
##  1     0            13
##  2     1.00          9
##  3     2.00          9
##  4     3.00         12
##  5     4.00         10
##  6     5.00         14
##  7     6.00          8
##  8     7.00         13
##  9     8.00         14
## 10     9.00         13
## # ... with 70 more rows
## [1] "Excluded 19 participants."
##  [1]  1  2  4  6 20 25 27 39 41 46 48 51 52 53 55 66 71 76 78
…
